…
Reducing the number of levels
Pew Research Religion Survey: 2019 Parents & Teens
```{r}
lds
```
# A tibble: 51 × 163
   preligrec PATTEND     TATTDWTH PPRAY TPRAY CaseID parent_wt teen_wt
   <chr>     <fct>       <fct>    <fct> <chr>  <dbl>     <dbl>   <dbl>
 1 LDS       Once a week Both pa… A fe… Seld…     16     1.24    1.87 
 2 LDS       More than … Both pa… Seve… A fe…    111     0.610   0.949
 3 LDS       Once a week Both pa… Seve… Once…    255     0.708   0.673
 4 LDS       Once a week Both pa… A fe… A fe…    341     0.747   0.910
 5 LDS       More than … Both pa… Seve… A fe…    410     0.741   0.950
 6 LDS       Once a week Mother   Seve… Seve…    415     0.284   0.242
 7 LDS       Once a week Both pa… Seve… A fe…    468     0.378   0.562
 8 LDS       Once a week Both pa… Seve… A fe…    568     0.356   0.485
 9 LDS       Once a week Both pa… Seve… A fe…    808     2.48    3.97 
10 LDS       Once a week Both pa… Seve… Seve…   1008     0.403   0.364
# ℹ 41 more rows
# ℹ 155 more variables: XSPANISH <dbl+lbl>, XPPRACEM <dbl+lbl>,
#   PPETHM <dbl+lbl>, PPAGEREC <dbl+lbl>, PPEDUCAT <dbl+lbl>,
#   PPGENDER <dbl+lbl>, PPINCIMPREC <dbl+lbl>, PPMARIT <dbl+lbl>,
#   PPHHSIZEREC <dbl+lbl>, PPMSACAT <dbl+lbl>, PPREG4 <dbl+lbl>,
#   DOV_ACSLANG <dbl+lbl>, DOV_TACSLANG <dbl+lbl>, S1 <dbl+lbl>,
#   S2 <dbl+lbl>, PTIME <dbl+lbl>, PMOTHER <dbl+lbl>, …
…
