…
Church of Jesus Christ of Latter-day Saints Facts by Country
Things you may have done:
  Row Operations
    Look at Country meaningful to you by name
    Use Find <ctrl>F to search for rows
  Column Operations
    Look at how many Temples (ignoring other columns)
  Sort / Arrange to find Most Wards

Church of Jesus Christ of Latter-day Saints Facts by Country
```{r}
# A tibble: 187 × 13
  Country             Area           TemplesOpen TemplesConst TemplesAnnounced Temples Missions Districts
  <chr>               <chr>                <dbl>        <dbl>            <dbl>   <dbl>    <dbl>     <dbl>
1 Albania             Europe Central           0            0                0       0        1         1
2 American Samoa      Pacific                  0            1                0       1        0         0
3 Andorra[c]          Europe Central           0            0                0       0        0         0
4 Angola              Africa South             0            0                0       0        1         1
5 Antigua and Barbuda Caribbean                0            0                0       0        0         0
6 Argentina           SA South                 2            3                1       6       13        27
7 Armenia             Europe East              0            0                0       0        1         1
8 Aruba               Caribbean                0            0                0       0        0         1
  Stakes Wards Branches Congregations   FHC
   <dbl> <dbl>    <dbl>         <dbl> <dbl>
1      1     6        8            14     4
2      5    38        5            43     5
3      0     0        1             1     0
4      1     8       11            19     1
5      0     0        1             1     1
6     78   484      242           726   133
7      0     0        5             5     4
8      0     0        2             2     2
# ℹ 179 more rows
```
…
