…
Get the 2006 Sheet
```{r}
try2006 <- read_excel("NFLinUT.xlsx", sheet = "2006")
try2006
```
# A tibble: 120 × 8
  date                time                network `home team`        
  <dttm>              <dttm>              <chr>   <chr>              
1 2006-08-06 00:00:00 1899-12-31 18:00:00 NBC     Philadelphia Eagles
2 2006-08-10 00:00:00 1899-12-31 18:00:00 FOX     St. Louis Rams     
3 2006-08-11 00:00:00 1899-12-31 18:00:00 CBS     Atlanta Falcons    
4 2006-08-13 00:00:00 1899-12-31 18:00:00 NBC     Cincinnati Bengals 
5 2006-08-14 00:00:00 1899-12-31 18:00:00 ESPN    Minnesota Vikings  
# ℹ 115 more rows
# ℹ 4 more variables: `visiting team` <chr>, Audience <dbl>,
#   line <dbl>, ou <dbl>
…
2006 fixed
```{r}
try2006 <- read_excel("NFLinUT.xlsx", sheet = "2006")
try2006 <- try2006 |>
  mutate(season = 2006) |>
  mutate(date = make_datetime(year = year(date), month = month(date), day = day(date),
                              hour = hour(time), min = minute(time))) |>
  select(!time) |>
  select(season, date, everything())

try2006
```
# A tibble: 120 × 8
  season date                network `home team`       `visiting team`
   <dbl> <dttm>              <chr>   <chr>             <chr>          
1   2006 2006-08-06 18:00:00 NBC     Philadelphia Eag… Oakland Raiders
2   2006 2006-08-10 18:00:00 FOX     St. Louis Rams    Indianapolis C…
3   2006 2006-08-11 18:00:00 CBS     Atlanta Falcons   New England Pa…
4   2006 2006-08-13 18:00:00 NBC     Cincinnati Benga… Washington Red…
5   2006 2006-08-14 18:00:00 ESPN    Minnesota Vikings Oakland Raiders
# ℹ 115 more rows
# ℹ 3 more variables: Audience <dbl>, line <dbl>, ou <dbl>
…
  # add this sheet to the bottom of NFLinUT
  NFLinUT <- bind_rows(NFLinUT, this_sheet)
}

# create csv file for future work
write_csv(NFLinUT, "NFLinUT.csv")
```
# A tibble: 1,249 × 8
   season date                network `home team`      `visiting team`
    <dbl> <dttm>              <chr>   <chr>            <chr>          
 1   2002 2003-01-04 14:45:00 ABC     New York Jets    Indianapolis C…
 2   2002 2003-01-04 18:00:00 ABC     Green Bay Packe… Atlanta Falcons
 3   2002 2003-01-05 14:45:00 FOX     San Francisco 4… New York Giants
 4   2002 2003-01-05 11:00:00 CBS     Pittsburgh Stee… Cleveland Brow…
 5   2002 2003-01-11 18:15:00 FOX     Philadelphia Ea… Atlanta Falcons
 6   2002 2003-01-11 14:30:00 CBS     Tennessee Titans Pittsburgh Ste…
 7   2002 2003-01-12 11:00:00 FOX     Tampa Bay Bucca… San Francisco …
 8   2002 2003-01-12 14:45:00 CBS     Oakland Raiders  New York Jets  
 9   2002 2003-01-19 13:15:00 FOX     Philadelphia Ea… Tampa Bay Bucc…
10   2002 2003-01-19 16:45:00 CBS     Oakland Raiders  Tennessee Tita…
11   2002 2003-01-26 16:30:00 ABC     Tampa Bay Bucca… Oakland Raiders
12   2003 2003-08-02 18:00:00 ESPN    Tampa Bay Bucca… New York Jets  
13   2003 2003-08-07 18:00:00 ESPN    New England Pat… New York Giants
14   2003 2003-08-11 18:00:00 ESPN    New Orleans Sai… Philadelphia E…
15   2003 2003-08-14 18:15:00 FOX     San Francisco 4… Oakland Raiders
16   2003 2003-08-15 18:00:00 CBS     Cleveland Browns Green Bay Pack…
17   2003 2003-08-16 18:00:00 ESPN    Tennessee Titans Buffalo Bills  
18   2003 2003-08-17 18:00:00 ABC     St. Louis Rams   Tampa Bay Bucc…
19   2003 2003-08-21 18:00:00 FOX     Pittsburgh Stee… Dallas Cowboys 
20   2003 2003-08-22 18:00:00 CBS     Miami Dolphins   Atlanta Falcons
# ℹ 1,229 more rows
# ℹ 3 more variables: Audience <dbl>, line <dbl>, ou <dbl>
…
