…
Tidy Data
The same underlying data can be represented multiple ways.
Tidy Data Rules:
  1. Each variable must have its own column
  2. Each observation must have its own row
  3. Each value must have its own cell

Tidy Data Example*
Is there a difference between local buyers and out-of-state buyers after adjusting for factors that impact price?
# A tibble: 3,096 × 9
   buyer    price units  acres   sqft condition covpkg   age region     
   <chr>    <dbl> <dbl>  <dbl>  <dbl> <chr>      <dbl> <dbl> <chr>      
 1 Out    3350000   200  7.39  127400 Average      190    20 NWCities   
 2 AZ      310000    12  0.713   9600 Average       12    49 CentPhoenix
 3 Out    5245549   184  9.2   114457 Average      184    21 CentPhoenix
 4 AZ      262500    23  0.33   10212 Average        0    21 CentPhoenix
 5 AZ      775000    16  1.34   16800 Fair          NA    15 Chandler   
 6 Out   21000000   330 13.9   292054 Good         330    13 Scottsdale 
 7 AZ      350000    34  2.12   29940 Average        0     4 NWCities   
 8 AZ      201000     8  0.397   5568 Average        0    37 Scottsdale 
 9 Out    3700000   166  6.82  168990 Fair          80    23 NPhoenix   
10 Out    1025000    60  2.23   45900 Good           0     4 NPhoenix   
# ℹ 3,086 more rows
…
Men
# A tibble: 3 × 8
  degree `1987` `1992` `1997` `2002` `2007` `2012` `2017`
  <chr>   <dbl>  <dbl>  <dbl>  <dbl>  <dbl>  <dbl>  <dbl>
1 BS        266    296    201    258    354    781   1918
2 MS        343    457    415    473    742   1071   1727
3 PhD        84    129    130    111    177    225    275

What were they thinking?
    Take last pretty table, and make two tables for gender
Not tidy because two datasets


Tidy Data
# A tibble: 42 × 4
   gender degree year  awarded
   <chr>  <chr>  <chr>   <dbl>
 1 women  BS     1987      197
 2 men    BS     1987      266
 3 women  MS     1987      232
 4 men    MS     1987      343
 5 women  PhD    1987       30
 6 men    PhD    1987       84
 7 women  BS     1992      258
 8 men    BS     1992      296
 9 women  MS     1992      294
10 men    MS     1992      457
11 women  PhD    1992       41
12 men    PhD    1992      129
13 women  BS     1997      164
14 men    BS     1997      201
15 women  MS     1997      380
# ℹ 27 more rows

```{r}
ggplot(stat_grads, aes(x = year, y = awarded, color = degree)) +
  geom_line() + 
  facet_wrap(~ gender)
```


Untidy Data Example
BYU Statistics Classes (Capacity / Enrollment by Class Type over Time)

# A tibble: 12 × 6
  Course  Type        Year  Fall Winter Spring
  <chr>   <chr>      <dbl> <dbl>  <dbl>  <dbl>
1 Stat230 Capacity    2021   150    136     40
2 Stat230 Enrollment  2021   102     95     29
3 Stat230 Capacity    2022   125    140     50
4 Stat230 Enrollment  2022    99     83     16
5 Stat240 Capacity    2021   158    135      0
6 Stat240 Enrollment  2021   147    103      0
7 Stat240 Capacity    2022   130    135     50
8 Stat240 Enrollment  2022   102     75     14
# ℹ 4 more rows
…
Don’t be Black / White about Tidy
Statistics Degrees Awarded (Top Schools by Type over Time)

Tidy A
```{r}
# A tibble: 48 × 4
   School    Year Degree Awarded
   <chr>    <dbl> <chr>    <dbl>
 1 Berkeley  2013 BS         143
 2 Berkeley  2014 BS         160
 3 Berkeley  2015 BS         215
 4 Berkeley  2016 BS         174
 5 Berkeley  2017 BS         215
 6 Berkeley  2018 BS         226
 7 Berkeley  2013 MS          39
 8 Berkeley  2014 MS          50
 9 Berkeley  2015 MS          20
10 Berkeley  2016 MS          34
11 Berkeley  2017 MS          23
12 Berkeley  2018 MS          39
13 BYU       2013 BS          35
14 BYU       2014 BS          42
15 BYU       2015 BS          57
16 BYU       2016 BS          69
17 BYU       2017 BS         101
18 BYU       2018 BS         136
# ℹ 30 more rows
```

Tidy B
```{r}
# A tibble: 24 × 4
   School    Year    BS    MS
   <chr>    <dbl> <dbl> <dbl>
 1 Berkeley  2013   143    39
 2 Berkeley  2014   160    50
 3 Berkeley  2015   215    20
 4 Berkeley  2016   174    34
 5 Berkeley  2017   215    23
 6 Berkeley  2018   226    39
 7 BYU       2013    35     9
 8 BYU       2014    42    15
 9 BYU       2015    57    12
10 BYU       2016    69    14
11 BYU       2017   101    16
12 BYU       2018   136     9
13 Duke      2013     8    11
14 Duke      2014    14     8
15 Duke      2015    23    17
16 Duke      2016    33    29
17 Duke      2017    40    33
18 Duke      2018    33    43
# ℹ 6 more rows
```
…
